{  
   "page":1,
   "per_page":10,
   "total":2770,
   "total_pages":277,
   "data":[  
      {  
         "Poster":"https://images-na.ssl-images-amazon.com/images/M/MV5BYzE4NTRmMDYtNWYzYi00YmNkLTk4NDEtYjFmMDc4ODQ3ODY2XkEyXkFqcGdeQXVyNTUyMzE4Mzg@._V1_SX300.jpg",
         "Title":"Waterworld",
         "Type":"movie",
         "Year":1995,
         "imdbID":"tt0114898"
      },
      {  
         "Poster":"N/A",
         "Title":"Waterworld",
         "Type":"game",
         "Year":1995,
         "imdbID":"tt0189200"
      },
      {  
         "Poster":"N/A",
         "Title":"The Making of 'Waterworld'",
         "Type":"movie",
         "Year":1995,
         "imdbID":"tt2670548"
      },
      {  
         "Poster":"N/A",
         "Title":"Waterworld 4: History of the Islands",
         "Type":"movie",
         "Year":1997,
         "imdbID":"tt0161077"
      },
      {  
         "Poster":"N/A",
         "Title":"Waterworld",
         "Type":"game",
         "Year":1997,
         "imdbID":"tt0455840"
      },
      {  
         "Poster":"N/A",
         "Title":"Waterworld",
         "Type":"movie",
         "Year":1997,
         "imdbID":"tt0390617"
      },
      {  
         "Poster":"N/A",
         "Title":"Swordquest: Waterworld",
         "Type":"game",
         "Year":1983,
         "imdbID":"tt2761086"
      },
      {  
         "Poster":"N/A",
         "Title":"Behind the Scenes of the Most Fascinating Waterworld on Earth: The Great Backwaters, Kerala.",
         "Type":"movie",
         "Year":2014,
         "imdbID":"tt5847056"
      },
      {  
         "Poster":"N/A",
         "Title":"Louise's Waterworld",
         "Type":"movie",
         "Year":1997,
         "imdbID":"tt0298417"
      },
      {  
         "Poster":"N/A",
         "Title":"Waterworld",
         "Type":"movie",
         "Year":2001,
         "imdbID":"tt0381702"
      }
   ]
}